{
"Real IP-address":["4515c14a-aa9b-4bb4-84dd-ff02a276e4a9","74b60807-bdb0-4cee-9359-2c16790adfdc"],
"Choose VIP+ number":["257b1cc0-bc90-4f9f-8e6a-2bf941246588"],
"IN Call Guard for incoming calls":["6539c7c1-bb67-4f88-a82d-e1df586c0c68"],
"Choose Platinum+ number":["3e3ef52d-50dc-4f11-8f93-98ef676a3e90"],
"Choose Silver+ number":["0aaa40ba-66b6-4126-9e71-c9e36c1ed71b"],
"Choose Diamond+ number":["0fed38b4-e0f9-4a3c-b823-8a6b14487550"],
"IN Call Guard for outgoing calls":["6a9c7e42-9895-4008-9f8f-1486066d2367"],
"One time call detail report (on paper), including invoice":["d74beed6-c520-48ab-8037-3f4127796df4"],
"Choose Gold number":["375146e0-068c-44b9-98ec-075da1f71c44"],
"Choose Platinum number":["0450a2ec-90aa-4b71-9e92-6192c12471a5"],
"Choose Bronze+ number":["3ffacd78-0585-4dec-891b-e0740b1a16bb"],
"SIM replacement (if lost)":["679fb73a-119e-419d-ac0b-dac9442aae40"],
"IN Call Guard for both":["abca0118-2d2e-4ab6-b3f1-476506531c76"],
"Telephone number change":["b4cd36f9-960e-4762-aaf2-7169c47b2d04"],
"SIM replacement (if e-SIM)":["1a30aec8-b9b9-4c3e-9ef1-6e665d8a2948"],
"IN Share Call":["eb435f5c-11d0-46a0-b08a-fcb1693c339a"],
"Static IP-address (23.6 у.е.)":["4ee3eaf0-9df8-4814-a588-f38a289bd71f","8c4fbfec-9e49-4e89-88a8-fa197e917b04"],
"Monthly call detail":["855a909a-6cc8-43fd-951f-957e2c771573"],
"One time call detail (to Email)":["2625a44b-517f-46c8-84b6-f2e99dc5d40d"],
"Choose Diamond number":["c654d5a1-ee7a-43e1-8f21-c60e39f3c397"],
"Tariff plan change":["f98d9c62-1383-42d2-a8d4-ef8954cf3f4c"],
"Contract change or renewal":["dd33b93c-611c-4823-b428-be5dfdfd19c4"],
"SIM replacement (if blocked)":["3d41b226-7357-44dd-a62b-82763438bfa1"],
"Choose Gold+ number":["04118077-4925-4342-8e53-6db0c0180e1c"],
"Money transfer via SMS":["1522abb5-8a4a-4d63-94ac-5e1addef2d27"],
"Choose Silver number":["b0c2581f-102c-4fcb-af25-a0ef471d8f5b"],
"Super CLIR":["964ed260-f356-4327-8f4c-683867d8f949"],
"Choose VIP number":["08f37d2b-7d0e-4f53-a401-b7ea52264109"],
"Dedicated APN":["1be0f1b5-000c-411d-9b0a-14fa12264681","b2c51c74-6f92-4403-b096-22343adda0b5"],
"Temporary number":["888f8924-662a-4284-882f-93e085f91040"],
"Static IP-address":["da429b46-e661-491c-b6fa-4cde44a5c15b","8a72da49-987b-4a27-9787-98bfc7df6105"],
"IN VPN":["8719c5b5-fe8f-4e3a-98d7-c9d35c7f22a9"],
"Order call details report via Internet self-service":["3d26b4e4-985f-4a77-93eb-27e1a7f764dc"],
"Mobitone":["c9787511-a5eb-4ff9-89a8-07774a5d28e3"],
"Choose Bronze number":["e4748f43-2207-4d47-a294-cc2c30e34307"]}
