{
"Real IP-address":["f84eb878-f276-42ec-9585-111e71b48698","d65863ff-fa96-4d6e-8ba5-82ecce2b5c51"],
"Choose VIP+ number":["9c589219-46df-40a9-a1eb-61f1713d6b5e"],
"IN Call Guard for incoming calls":["31935fb8-f521-4eee-a96a-d05ec9812ceb"],
"Choose Platinum+ number":["98279d3f-41e8-4bef-81e9-c383cf289fcd"],
"Choose Silver+ number":["743d8629-0312-4155-a00f-d36d610fe051"],
"Choose Diamond+ number":["8d2b91ae-2f46-4c99-a391-9944d78b9f53"],
"IN Call Guard for outgoing calls":["2720a886-e8da-437b-966a-0b8c5fff23c2"],
"One time call detail report (on paper), including invoice":["170b547a-c11e-4f94-b36e-6b45a388ac46"],
"Choose Gold number":["1d337944-b94e-4c25-b3b4-3766c0a95394"],
"Choose Platinum number":["f53193c3-3532-4212-a11a-1f58d3da5fbf"],
"Choose Bronze+ number":["00cf3e66-f442-49d2-afbf-945771fd435b"],
"SIM replacement (if lost)":["fa40bfa3-c279-4755-b21a-99d9aa04c093"],
"IN Call Guard for both":["0bdfdb18-48d0-4734-b90c-8d1ec7c5377b"],
"Telephone number change":["5af55ea6-6ae7-497a-b1b2-72a9f7e19c45"],
"SIM replacement (if e-SIM)":["1a30aec8-b9b9-4c3e-9ef1-6e665d8a2948"],
"IN Share Call":["8a7fdab2-6b0a-4a0a-8e1c-1846efe62293"],
"Static IP-address (23.6 у.е.)":["b999b437-70bd-4b7e-bf49-2fb1097f58e4","2e02a103-19a3-4863-8745-8f9034fbb560"],
"Monthly call detail":["280b9917-3acf-45f9-98ef-a235ab7820e6"],
"One time call detail (to Email)":["f602bcce-d7ee-41c8-a170-67aa332a1fec"],
"Choose Diamond number":["47163f98-a63c-453a-bec7-2af6527a9a20"],
"Tariff plan change":["45b8c6cb-3c32-46c0-bd60-dd127f878552"],
"Contract change or renewal":["f23cdfc4-e7df-4fc2-bcf5-2a5ec2c8ae7c"],
"SIM replacement (if blocked)":["25a5a22e-5521-4d97-8965-75083faf3ecc"],
"Choose Gold+ number":["9dfe6787-37e5-438f-90d1-8d8f30670721"],
"Money transfer via SMS":["920530a6-3f9c-4913-9129-d7cb319e9607"],
"Choose Silver number":["b75d982e-b620-4b1d-bf4f-c534c7eee5bf"],
"Super CLIR":["2591268b-51ac-4c1a-9274-625937a33d76"],
"Choose VIP number":["e1f83d8b-04a3-4b67-8f44-1d5407f29bd1"],
"Dedicated APN":["98cbe4de-74ec-43f6-a1f3-c1410e3132e1","72730764-f6d3-412a-ae31-1195bce1e34e"],
"Temporary number":["7726a587-28ca-4331-9e0e-461c58da1d31"],
"Static IP-address":["b6ab8c8e-41a5-4351-8434-b36e2ac27684","1b93d73f-9366-4776-a9e9-d2b7d7bc9663"],
"IN VPN":["a3f64004-7219-4293-99a0-4a94ddd986d6"],
"Order call details report via Internet self-service":["3d26b4e4-985f-4a77-93eb-27e1a7f764dc"],
"Mobitone":["cbd96629-5eb7-4292-bdc8-59e716adfd8a"],
"Choose Bronze number":["521a8c22-0ca1-4d19-bb7d-3f1ebf9945c0"]}
